{
    "title"     :   "Deathmatch Democracy",
    "type"      :   "gamemode",
    "tags"      :   [],
    "ignore"    :
    [
        ".git/**",
        "*.fodt",
        "*.pdn",
        ".gitignore",
        "README.md",
        "deathmatch_democracy.jpg",
        "*.gma",
        "*.bat"
    ]
}
